LAB05/simulation/qsim/ULA.msim.vcd
$comment
	File created using the following command:
		vcd file ULA.msim.vcd -direction
$end
$date
	Sat Apr 26 10:40:27 2025
$end
$version
	ModelSim Version 10.1d
$end
$timescale
	1ps
$end
$scope module ULA_vlg_vec_tst $end
$var reg 4 ! A [3:0] $end
$var reg 4 " B [3:0] $end
$var reg 2 # op_sel [1:0] $end
$var wire 1 $ flag_N $end
$var wire 1 % flag_Z $end
$var wire 1 & S [3] $end
$var wire 1 ' S [2] $end
$var wire 1 ( S [1] $end
$var wire 1 ) S [0] $end
$var wire 1 * sampler $end
$scope module i1 $end
$var wire 1 + gnd $end
$var wire 1 , vcc $end
$var wire 1 - unknown $end
$var tri1 1 . devclrn $end
$var tri1 1 / devpor $end
$var tri1 1 0 devoe $end
$var wire 1 1 flag_Z~output_o $end
$var wire 1 2 S[3]~output_o $end
$var wire 1 3 S[2]~output_o $end
$var wire 1 4 S[1]~output_o $end
$var wire 1 5 S[0]~output_o $end
$var wire 1 6 flag_N~output_o $end
$var wire 1 7 op_sel[1]~input_o $end
$var wire 1 8 op_sel[0]~input_o $end
$var wire 1 9 B[2]~input_o $end
$var wire 1 : A[2]~input_o $end
$var wire 1 ; A[0]~input_o $end
$var wire 1 < B[1]~input_o $end
$var wire 1 = B[0]~input_o $end
$var wire 1 > A[1]~input_o $end
$var wire 1 ? inst|inst2|inst2~0_combout $end
$var wire 1 @ inst7|$00000|auto_generated|result_node[3]~4_combout $end
$var wire 1 A B[3]~input_o $end
$var wire 1 B A[3]~input_o $end
$var wire 1 C inst7|$00000|auto_generated|result_node[3]~5_combout $end
$var wire 1 D inst7|$00000|auto_generated|result_node[3]~11_combout $end
$var wire 1 E inst7|$00000|auto_generated|result_node[2]~6_combout $end
$var wire 1 F inst7|$00000|auto_generated|result_node[2]~12_combout $end
$var wire 1 G inst7|$00000|auto_generated|result_node[0]~10_combout $end
$var wire 1 H inst7|$00000|auto_generated|result_node[1]~7_combout $end
$var wire 1 I inst7|$00000|auto_generated|result_node[1]~8_combout $end
$var wire 1 J inst7|$00000|auto_generated|result_node[1]~9_combout $end
$var wire 1 K inst9~0_combout $end
$upscope $end
$upscope $end
$enddefinitions $end
#0
$dumpvars
b0 !
b10 "
b0 #
x$
x%
x)
x(
x'
x&
x*
0+
1,
x-
1.
1/
10
x1
x2
x3
x4
x5
x6
07
08
09
0:
0;
1<
0=
0>
x?
x@
0A
0B
xC
xD
xE
xF
xG
xH
xI
xJ
xK
$end
#3242
0G
#3463
0I
#3557
0@
#3559
0?
#3561
0E
#3565
1H
#3569
0C
#3889
0D
#4011
0F
#4132
1J
#4460
1K
#5794
05
0)
#6614
02
0&
#6654
06
0$
#7233
03
0'
#7269
01
0%
#7326
14
1(
#40000
b1 !
b11 "
b1 #
0*
#40725
1;
1=
#40745
18
#43717
0J
#43722
1?
#43740
0H
#43927
1I
#43955
1G
#44060
0K
#44394
1K
#46514
15
1)
#46895
04
0(
#80000
b11 !
b111 "
b101 "
b11 #
b10 !
b100 "
b10 #
1*
#80689
1>
#80715
19
#80735
17
#80886
0;
0=
#80906
0<
08
#83374
0G
#83383
1C
#83629
1E
1H
#83688
1D
#83844
0K
#83890
1@
#84040
0?
#84046
1F
#84196
1J
#84374
0@
#84379
0C
#84433
1K
#84699
0D
#85926
05
0)
#87262
13
1'
#87390
14
1(
#120000
b11 !
b101 "
b11 #
0*
#120725
1;
1=
#120745
18
#123722
1?
#123740
0H
#123954
1C
#124037
1@
#124259
1D
#124355
0J
#127011
12
1&
#127034
16
1$
#127533
04
0(
#160000
b111 !
b101 !
b111 "
b1 #
b100 !
b110 "
b0 #
1*
#160735
1:
#160745
1<
#160852
0>
#160886
0;
0=
#160896
07
#160906
08
#163793
0C
#164155
0E
#164309
0F
#164369
0I
#164411
0?
#164417
1H
#164606
1F
#164740
0F
#164984
1J
#167962
03
0'
#168178
14
1(
#200000
b101 !
b111 "
b1 #
0*
#200725
1;
1=
#200745
18
#203717
0J
#203722
1?
#203740
0H
#203741
1E
#203922
0D
#203927
1I
#203955
1G
#204158
1F
#206514
15
1)
#206647
02
0&
#206687
06
0$
#206895
04
0(
#207374
13
1'
#240000
b1111 "
b1011 "
b111 !
b1001 "
b11 #
b110 !
b1000 "
b10 #
1*
#240689
1>
#240715
1A
#240735
17
#240876
09
#240886
0=
0;
#240906
0<
08
#243374
0G
#243383
1C
#243616
0E
#243629
1H
#243688
1D
#244040
0?
#244066
0F
#244156
1E
#244196
1J
#244374
0@
#244573
1F
#245926
05
0)
#246440
12
1&
#246463
16
1$
#247390
14
1(
#280000
b111 !
b1001 "
b11 #
0*
#280725
1;
1=
#280745
18
#283722
1?
#283740
0E
0H
#284037
1@
#284190
0F
#284355
0J
#287412
03
0'
#287533
04
0(
#320000
b1111 !
b1011 !
b1001 !
b1011 "
b1 #
b1000 !
b1010 "
b0 #
1*
#320735
1B
#320745
1<
#320852
0>
#320886
0;
0=
#320896
0:
07
#320906
08
#324305
1F
#324347
0D
#324369
0I
#324379
0C
#324411
0?
#324417
1H
#324453
0@
#324740
0F
#324984
1J
#327072
02
0&
#327112
06
0$
#328178
14
1(
#360000
b1001 !
b1011 "
b1 #
0*
#360725
1;
1=
#360745
18
#363717
0J
#363722
1?
#363740
0H
#363927
1I
#363954
1C
#363955
1G
#364060
0K
#364259
1D
#364394
1K
#366514
15
1)
#366895
04
0(
#367011
12
1&
#367034
16
1$
#400000
b1111 "
b1011 !
b1101 "
b11 #
b1010 !
b1100 "
b10 #
1*
#400689
1>
#400715
19
#400735
17
#400886
0=
0;
#400906
0<
08
#403373
0C
#403374
0G
#403629
1E
1H
#403693
0D
#403890
1@
#404040
0?
#404046
1F
#404196
1J
#404374
0@
#404380
1C
#404685
1D
#405926
05
0)
#407262
13
1'
#407390
14
1(
#440000
b1011 !
b1101 "
b11 #
0*
#440725
1;
1=
#440745
18
#443722
1?
#443740
0H
#443953
0C
#444037
1@
#444273
0D
#444355
0J
#446998
02
0&
#447038
06
0$
#447533
04
0(
#480000
b1111 !
b1101 !
b1111 "
b1 #
b1100 !
b1110 "
b0 #
1*
#480735
1:
#480745
1<
#480852
0>
#480886
0;
0=
#480896
07
#480906
08
#483803
1C
#484155
0E
#484309
0F
#484369
0I
#484379
0C
#484411
0?
#484417
1H
#484606
1F
#484709
1D
#484740
0F
#484921
0K
#484984
1J
#485454
1K
#487461
12
1&
#487484
16
1$
#487962
03
0'
#488178
14
1(
#500000
b110 "
b100 !
b10 "
b0 !
b0 "
0*
#500876
0A
09
#500896
0B
0:
#500906
0<
#504067
0H
#504073
1E
#504362
0@
#504457
0E
#504490
1F
#504682
0J
#504814
0D
#504907
0F
#505583
0K
#507539
02
0&
#507579
06
0$
#507860
04
0(
#508378
11
1%
