LAB01/simulation/qsim/RCA.msim.vcd
$comment
	File created using the following command:
		vcd file RCA.msim.vcd -direction
$end
$date
	Wed Mar 26 18:13:32 2025
$end
$version
	ModelSim Version 10.1d
$end
$timescale
	1ps
$end
$scope module RCA_vlg_vec_tst $end
$var reg 4 ! A [3:0] $end
$var reg 4 " B [3:0] $end
$var wire 1 # Cout $end
$var wire 1 $ S [3] $end
$var wire 1 % S [2] $end
$var wire 1 & S [1] $end
$var wire 1 ' S [0] $end
$var wire 1 ( sampler $end
$scope module i1 $end
$var wire 1 ) gnd $end
$var wire 1 * vcc $end
$var wire 1 + unknown $end
$var tri1 1 , devclrn $end
$var tri1 1 - devpor $end
$var tri1 1 . devoe $end
$var wire 1 / Cout~output_o $end
$var wire 1 0 S[3]~output_o $end
$var wire 1 1 S[2]~output_o $end
$var wire 1 2 S[1]~output_o $end
$var wire 1 3 S[0]~output_o $end
$var wire 1 4 B[2]~input_o $end
$var wire 1 5 inst3|inst2~0_combout $end
$var wire 1 6 A[2]~input_o $end
$var wire 1 7 inst3|inst2~1_combout $end
$var wire 1 8 A[3]~input_o $end
$var wire 1 9 B[3]~input_o $end
$var wire 1 : inst4|inst2~0_combout $end
$var wire 1 ; inst4|inst3~combout $end
$var wire 1 < A[0]~input_o $end
$var wire 1 = A[1]~input_o $end
$var wire 1 > B[1]~input_o $end
$var wire 1 ? inst2|inst2~0_combout $end
$var wire 1 @ inst3|inst3~0_combout $end
$var wire 1 A B[0]~input_o $end
$var wire 1 B inst2|inst3~0_combout $end
$var wire 1 C inst|inst~combout $end
$upscope $end
$upscope $end
$enddefinitions $end
#0
$dumpvars
b11 !
b1 "
0#
0'
0&
1%
0$
x(
0)
1*
x+
1,
1-
1.
0/
00
11
02
03
04
05
06
07
08
09
0:
0;
1<
1=
0>
1?
1@
1A
0B
0C
$end
#40000
b1011 !
b1010 !
b1001 "
b1011 "
b1010 "
0A
1>
19
0<
18
0(
1:
1/
1#
#80000
b1110 !
b1111 !
b10 "
b0 "
b1 "
1A
0>
09
1<
16
1(
17
1;
0:
0@
10
0/
01
1$
0#
0%
0;
1:
00
1/
0$
1#
#120000
b111 !
b11 !
06
08
0(
07
1@
1;
0:
11
10
0/
1%
1$
0#
0;
00
0$
#160000
b10 !
b1001 "
b1011 "
b1010 "
b1010 !
0A
1>
19
0<
18
1(
1:
1/
1#
#200000
b1110 !
b1111 !
b10 "
b0 "
b1 "
1A
0>
09
1<
16
0(
17
1;
0:
0@
10
0/
01
1$
0#
0%
0;
1:
00
1/
0$
1#
#240000
b111 !
b11 !
06
08
1(
07
1@
1;
0:
11
10
0/
1%
1$
0#
0;
00
0$
#280000
b10 !
b1001 "
b1011 "
b1010 "
b1010 !
0A
1>
19
0<
18
0(
1:
1/
1#
#320000
b1110 !
b1111 !
b10 "
b0 "
b1 "
1A
0>
09
1<
16
1(
17
1;
0:
0@
10
0/
01
1$
0#
0%
0;
1:
00
1/
0$
1#
#360000
b111 !
b11 !
06
08
0(
07
1@
1;
0:
11
10
0/
1%
1$
0#
0;
00
0$
#400000
b10 !
b1001 "
b1011 "
b1010 "
b1010 !
0A
1>
19
0<
18
1(
1:
1/
1#
#440000
b1110 !
b1111 !
b10 "
b0 "
b1 "
1A
0>
09
1<
16
0(
17
1;
0:
0@
10
0/
01
1$
0#
0%
0;
1:
00
1/
0$
1#
#480000
b111 !
b11 !
06
08
1(
07
1@
1;
0:
11
10
0/
1%
1$
0#
0;
00
0$
#520000
b10 !
b1001 "
b1011 "
b1010 "
b1010 !
0A
1>
19
0<
18
0(
1:
1/
1#
#560000
b1110 !
b1111 !
b10 "
b0 "
b1 "
1A
0>
09
1<
16
1(
17
1;
0:
0@
10
0/
01
1$
0#
0%
0;
1:
00
1/
0$
1#
#600000
b111 !
b11 !
06
08
0(
07
1@
1;
0:
11
10
0/
1%
1$
0#
0;
00
0$
#640000
b10 !
b1001 "
b1011 "
b1010 "
b1010 !
0A
1>
19
0<
18
1(
1:
1/
1#
#680000
b1110 !
b1111 !
b10 "
b0 "
b1 "
1A
0>
09
1<
16
0(
17
1;
0:
0@
10
0/
01
1$
0#
0%
0;
1:
00
1/
0$
1#
#720000
b111 !
b11 !
06
08
1(
07
1@
1;
0:
11
10
0/
1%
1$
0#
0;
00
0$
#760000
b10 !
b1001 "
b1011 "
b1010 "
b1010 !
0A
1>
19
0<
18
0(
1:
1/
1#
#800000
b1110 !
b1111 !
b10 "
b0 "
b1 "
1A
0>
09
1<
16
1(
17
1;
0:
0@
10
0/
01
1$
0#
0%
0;
1:
00
1/
0$
1#
#840000
b111 !
b11 !
06
08
0(
07
1@
1;
0:
11
10
0/
1%
1$
0#
0;
00
0$
#880000
b10 !
b1001 "
b1011 "
b1010 "
b1010 !
0A
1>
19
0<
18
1(
1:
1/
1#
#920000
b1110 !
b1111 !
b10 "
b0 "
b1 "
1A
0>
09
1<
16
0(
17
1;
0:
0@
10
0/
01
1$
0#
0%
0;
1:
00
1/
0$
1#
#960000
b111 !
b11 !
06
08
1(
07
1@
1;
0:
11
10
0/
1%
1$
0#
0;
00
0$
