LAB08/simulation/qsim/LAB08.msim.vcd
$comment
	File created using the following command:
		vcd file LAB08.msim.vcd -direction
$end
$date
	Thu Jun 05 15:00:06 2025
$end
$version
	ModelSim Version 10.1d
$end
$timescale
	1ps
$end
$scope module LAB08_vlg_vec_tst $end
$var reg 1 ! clk $end
$var reg 8 " D [7:0] $end
$var reg 2 # Sel [1:0] $end
$var wire 1 $ Q [7] $end
$var wire 1 % Q [6] $end
$var wire 1 & Q [5] $end
$var wire 1 ' Q [4] $end
$var wire 1 ( Q [3] $end
$var wire 1 ) Q [2] $end
$var wire 1 * Q [1] $end
$var wire 1 + Q [0] $end
$var wire 1 , sampler $end
$scope module i1 $end
$var wire 1 - gnd $end
$var wire 1 . vcc $end
$var wire 1 / unknown $end
$var tri1 1 0 devclrn $end
$var tri1 1 1 devpor $end
$var tri1 1 2 devoe $end
$var wire 1 3 Q[7]~output_o $end
$var wire 1 4 Q[6]~output_o $end
$var wire 1 5 Q[5]~output_o $end
$var wire 1 6 Q[4]~output_o $end
$var wire 1 7 Q[3]~output_o $end
$var wire 1 8 Q[2]~output_o $end
$var wire 1 9 Q[1]~output_o $end
$var wire 1 : Q[0]~output_o $end
$var wire 1 ; clk~input_o $end
$var wire 1 < clk~inputclkctrl_outclk $end
$var wire 1 = Sel[1]~input_o $end
$var wire 1 > D[7]~input_o $end
$var wire 1 ? D[4]~input_o $end
$var wire 1 @ D[3]~input_o $end
$var wire 1 A Sel[0]~input_o $end
$var wire 1 B D[2]~input_o $end
$var wire 1 C D[0]~input_o $end
$var wire 1 D inst3|inst3~0_combout $end
$var wire 1 E inst16|inst~0_combout $end
$var wire 1 F inst4~q $end
$var wire 1 G inst10|inst3~0_combout $end
$var wire 1 H D[1]~input_o $end
$var wire 1 I inst10|inst3~1_combout $end
$var wire 1 J inst11~q $end
$var wire 1 K inst|inst7|inst3~0_combout $end
$var wire 1 L inst|inst7|inst3~1_combout $end
$var wire 1 M inst|inst~q $end
$var wire 1 N inst12|inst7|inst3~0_combout $end
$var wire 1 O inst12|inst7|inst3~1_combout $end
$var wire 1 P inst12|inst~q $end
$var wire 1 Q inst12|inst12|inst3~0_combout $end
$var wire 1 R inst13|inst7|inst3~0_combout $end
$var wire 1 S inst13|inst7|inst3~1_combout $end
$var wire 1 T inst13|inst~q $end
$var wire 1 U D[6]~input_o $end
$var wire 1 V D[5]~input_o $end
$var wire 1 W inst|inst12|inst3~0_combout $end
$var wire 1 X inst13|inst12|inst3~0_combout $end
$var wire 1 Y inst14|inst7|inst3~0_combout $end
$var wire 1 Z inst14|inst7|inst3~1_combout $end
$var wire 1 [ inst14|inst~q $end
$var wire 1 \ inst15|inst7|inst3~0_combout $end
$var wire 1 ] inst15|inst7|inst3~1_combout $end
$var wire 1 ^ inst15|inst~q $end
$var wire 1 _ inst16|inst7|inst3~0_combout $end
$var wire 1 ` inst16|inst7|inst3~1_combout $end
$var wire 1 a inst16|inst7|inst3~2_combout $end
$var wire 1 b inst16|inst~q $end
$upscope $end
$upscope $end
$enddefinitions $end
#0
$dumpvars
0!
b0 "
b0 #
0+
0*
0)
0(
0'
0&
0%
0$
x,
0-
1.
x/
10
11
12
03
04
05
06
07
08
09
0:
0;
0<
0=
0>
0?
0@
0A
0B
0C
0D
1E
0F
0G
0H
0I
0J
1K
0L
0M
1N
0O
0P
0Q
1R
0S
0T
0U
0V
0W
0X
0Y
0Z
0[
0\
0]
0^
0_
0`
0a
0b
$end
#10000
1!
1;
1<
0,
#20000
b1 "
0!
1C
0;
0<
1,
1D
#30000
1!
1;
1<
0,
1F
1:
1+
#40000
b11 "
b10 "
0!
0C
1H
0;
0<
1,
0D
1I
#50000
1!
1;
1<
0,
1J
0F
19
0:
1*
0+
#60000
b10 #
b11 #
b0 "
0!
0H
1A
1=
0;
0<
1,
0I
1_
1\
1Y
1W
0R
1Q
1D
1`
1]
1Z
1X
1S
1R
1a
0`
0\
0Y
0S
0a
0]
0Z
#70000
1!
1;
1<
0,
0J
1F
0D
09
1:
0*
1+
#80000
0!
0;
0<
1,
#90000
1!
1;
1<
0,
0F
0W
0Q
0N
0K
1G
1D
0:
0+
0X
0R
1O
1L
1I
1`
1\
1Y
1S
1a
1]
1Z
#100000
0!
0;
0<
1,
#110000
1!
1;
1<
0,
1b
1^
1[
1T
1P
1M
1J
1F
0a
0`
0]
0_
0\
0Z
0Y
1X
0O
1Q
1N
1W
0D
13
14
15
16
17
18
19
1:
1$
1%
1&
1'
1(
1)
1*
1+
1a
1]
1Z
1O
#120000
0!
0;
0<
1,
#130000
1!
1;
1<
0,
0F
0G
1D
0:
0+
0I
#140000
0!
0;
0<
1,
#150000
1!
1;
1<
0,
0J
1F
0D
09
1:
0*
1+
#160000
0!
0;
0<
1,
#170000
1!
1;
1<
0,
0F
0W
1K
1G
1D
0:
0+
0L
1I
#180000
0!
0;
0<
1,
#190000
1!
1;
1<
0,
0M
1J
1F
1W
0D
08
19
1:
0)
1*
1+
#200000
0!
0;
0<
1,
#210000
1!
1;
1<
0,
0F
0G
1D
0:
0+
0I
#220000
0!
0;
0<
1,
#230000
1!
1;
1<
0,
0J
1F
0D
09
1:
0*
1+
#240000
0!
0;
0<
1,
#250000
1!
1;
1<
0,
0F
0W
0Q
0N
0K
1G
1D
0:
0+
0O
1L
1I
#260000
0!
0;
0<
1,
#270000
1!
1;
1<
0,
0P
1M
1J
1F
1R
1O
1Q
1N
1W
0D
07
18
19
1:
0(
1)
1*
1+
0S
0R
0O
1S
#280000
0!
0;
0<
1,
#290000
1!
1;
1<
0,
0F
0G
1D
0:
0+
0I
#300000
0!
0;
0<
1,
#310000
1!
1;
1<
0,
0J
1F
0D
09
1:
0*
1+
#320000
0!
0;
0<
1,
#330000
1!
1;
1<
0,
0F
0W
1K
1G
1D
0:
0+
0L
1I
#340000
0!
0;
0<
1,
#350000
1!
1;
1<
0,
0M
1J
1F
0X
1W
0D
08
19
1:
0)
1*
1+
1X
#360000
0!
0;
0<
1,
#370000
1!
1;
1<
0,
0F
0G
1D
0:
0+
0I
#380000
0!
0;
0<
1,
#390000
1!
1;
1<
0,
0J
1F
0D
09
1:
0*
1+
#400000
0!
0;
0<
1,
#410000
1!
1;
1<
0,
0F
0W
0Q
0N
0K
1G
1D
0:
0+
0X
1R
1O
1L
1I
0S
#420000
0!
0;
0<
1,
#430000
1!
1;
1<
0,
0T
1P
1M
1J
1F
1Y
1X
0O
1Q
1N
1W
0D
06
17
18
19
1:
0'
1(
1)
1*
1+
0Z
0Y
1O
1Z
#440000
0!
0;
0<
1,
#450000
1!
1;
1<
0,
0F
0G
1D
0:
0+
0I
#460000
0!
0;
0<
1,
#470000
1!
1;
1<
0,
0J
1F
0D
09
1:
0*
1+
#480000
0!
0;
0<
1,
#490000
1!
1;
1<
0,
0F
0W
1K
1G
1D
0:
0+
0L
1I
#500000
b10000 "
b11000 "
b11001 "
0!
1C
1@
1?
0;
0<
1,
#510000
1!
1;
1<
0,
0M
1J
1F
1W
0D
08
19
1:
0)
1*
1+
#520000
b11011 "
b11010 "
0!
0C
1H
0;
0<
1,
#530000
1!
1;
1<
0,
0F
0G
1D
0:
0+
0I
#540000
b11011 "
0!
1C
0;
0<
1,
#550000
1!
1;
1<
0,
0J
1F
0D
09
1:
0*
1+
#560000
b11111 "
b11101 "
b11100 "
0!
0C
0H
1B
0;
0<
1,
#570000
1!
1;
1<
0,
0F
0W
0Q
0N
0K
1G
1D
0:
0+
0O
1L
1I
#580000
b11101 "
0!
1C
0;
0<
1,
#590000
1!
1;
1<
0,
0P
1M
1J
1F
0R
1O
1Q
1N
1W
0D
07
18
19
1:
0(
1)
1*
1+
1S
1R
0O
0S
#600000
b11111 "
b11110 "
0!
0C
1H
0;
0<
1,
#610000
1!
1;
1<
0,
0F
0G
1D
0:
0+
0I
#620000
b11111 "
0!
1C
0;
0<
1,
#630000
1!
1;
1<
0,
0J
1F
0D
09
1:
0*
1+
#640000
b111111 "
b101111 "
b100111 "
b100011 "
b100001 "
b100000 "
0!
0C
0H
0B
0@
0?
1V
0;
0<
1,
#650000
1!
1;
1<
0,
0F
0W
1K
1G
1D
0:
0+
0L
1I
#660000
b100001 "
0!
1C
0;
0<
1,
#670000
1!
1;
1<
0,
0M
1J
1F
0X
1W
0D
08
19
1:
0)
1*
1+
1Y
1X
0Z
0Y
1Z
#680000
b100011 "
b100010 "
0!
0C
1H
0;
0<
1,
#690000
1!
1;
1<
0,
0F
0G
1D
0:
0+
0I
#700000
b100011 "
0!
1C
0;
0<
1,
#710000
1!
1;
1<
0,
0J
1F
0D
09
1:
0*
1+
#720000
b100111 "
b100101 "
b100100 "
0!
0C
0H
1B
0;
0<
1,
#730000
1!
1;
1<
0,
0F
0W
0Q
0N
0K
1G
1D
0:
0+
0X
0R
1O
1L
1I
1Y
1S
0Z
#740000
b100101 "
0!
1C
0;
0<
1,
#750000
1!
1;
1<
0,
0[
1T
1P
1M
1J
1F
1Z
0Y
1X
0O
1Q
1N
1W
0D
05
16
17
18
19
1:
0&
1'
1(
1)
1*
1+
0Z
1O
#760000
b100111 "
b100110 "
0!
0C
1H
0;
0<
1,
#770000
1!
1;
1<
0,
0F
0G
1D
0:
0+
0I
#780000
b100111 "
0!
1C
0;
0<
1,
#790000
1!
1;
1<
0,
0J
1F
0D
09
1:
0*
1+
#800000
b101111 "
b101011 "
b101001 "
b101000 "
0!
0C
0H
0B
1@
0;
0<
1,
#810000
1!
1;
1<
0,
0F
0W
1K
1G
1D
0:
0+
0L
1I
#820000
b101001 "
0!
1C
0;
0<
1,
#830000
1!
1;
1<
0,
0M
1J
1F
1W
0D
08
19
1:
0)
1*
1+
#840000
b101011 "
b101010 "
0!
0C
1H
0;
0<
1,
#850000
1!
1;
1<
0,
0F
0G
1D
0:
0+
0I
#860000
b101011 "
0!
1C
0;
0<
1,
#870000
1!
1;
1<
0,
0J
1F
0D
09
1:
0*
1+
#880000
b101111 "
b101101 "
b101100 "
0!
0C
0H
1B
0;
0<
1,
#890000
1!
1;
1<
0,
0F
0W
0Q
0N
0K
1G
1D
0:
0+
0O
1L
1I
#900000
b101101 "
0!
1C
0;
0<
1,
#910000
1!
1;
1<
0,
0P
1M
1J
1F
1R
1O
1Q
1N
1W
0D
07
18
19
1:
0(
1)
1*
1+
0S
0R
0O
1S
#920000
b101111 "
b101110 "
0!
0C
1H
0;
0<
1,
#930000
1!
1;
1<
0,
0F
0G
1D
0:
0+
0I
#940000
b101111 "
0!
1C
0;
0<
1,
#950000
1!
1;
1<
0,
0J
1F
0D
09
1:
0*
1+
#960000
b111111 "
b110111 "
b110011 "
b110001 "
b110000 "
0!
0C
0H
0B
0@
1?
0;
0<
1,
#970000
1!
1;
1<
0,
0F
0W
1K
1G
1D
0:
0+
0L
1I
#980000
b110001 "
0!
1C
0;
0<
1,
#990000
1!
1;
1<
0,
0M
1J
1F
0X
1W
0D
08
19
1:
0)
1*
1+
1X
