LAB00/simulation/qsim/FA.msim.vcd
$comment
	File created using the following command:
		vcd file FA.msim.vcd -direction
$end
$date
	Tue Mar 25 22:31:29 2025
$end
$version
	ModelSim Version 10.1d
$end
$timescale
	1ps
$end
$scope module FA_vlg_vec_tst $end
$var reg 1 ! A $end
$var reg 1 " B $end
$var reg 1 # Cin $end
$var wire 1 $ Cout $end
$var wire 1 % S $end
$var wire 1 & sampler $end
$scope module i1 $end
$var wire 1 ' gnd $end
$var wire 1 ( vcc $end
$var wire 1 ) unknown $end
$var tri1 1 * devclrn $end
$var tri1 1 + devpor $end
$var tri1 1 , devoe $end
$var wire 1 - S~output_o $end
$var wire 1 . Cout~output_o $end
$var wire 1 / A~input_o $end
$var wire 1 0 B~input_o $end
$var wire 1 1 Cin~input_o $end
$var wire 1 2 inst3~0_combout $end
$var wire 1 3 inst2~0_combout $end
$upscope $end
$upscope $end
$enddefinitions $end
#0
$dumpvars
0!
0"
0#
0$
0%
x&
0'
1(
x)
1*
1+
1,
0-
0.
0/
00
01
02
03
$end
#10000
1#
11
0&
12
1-
1%
#20000
1"
0#
10
01
1&
#30000
1#
11
0&
13
02
1.
0-
1$
0%
#40000
1!
0"
0#
1/
00
01
1&
03
12
0.
1-
0$
1%
#50000
1#
11
0&
13
02
1.
0-
1$
0%
#60000
1"
0#
10
01
1&
#70000
1#
11
0&
12
1-
1%
#80000
0!
0"
0#
0/
00
01
1&
03
02
0.
0-
0$
0%
