LAB04/SCLA/simulation/qsim/SCLA.msim.vcd
$comment
	File created using the following command:
		vcd file SCLA.msim.vcd -direction
$end
$date
	Tue Apr 22 19:50:32 2025
$end
$version
	ModelSim Version 10.1d
$end
$timescale
	1ps
$end
$scope module SCLA_vlg_vec_tst $end
$var reg 4 ! A [3:0] $end
$var reg 4 " B [3:0] $end
$var reg 1 # C0 $end
$var wire 1 $ C4 $end
$var wire 1 % S [3] $end
$var wire 1 & S [2] $end
$var wire 1 ' S [1] $end
$var wire 1 ( S [0] $end
$var wire 1 ) sampler $end
$scope module i1 $end
$var wire 1 * gnd $end
$var wire 1 + vcc $end
$var wire 1 , unknown $end
$var tri1 1 - devclrn $end
$var tri1 1 . devpor $end
$var tri1 1 / devoe $end
$var wire 1 0 C4~output_o $end
$var wire 1 1 S[3]~output_o $end
$var wire 1 2 S[2]~output_o $end
$var wire 1 3 S[1]~output_o $end
$var wire 1 4 S[0]~output_o $end
$var wire 1 5 B[2]~input_o $end
$var wire 1 6 A[2]~input_o $end
$var wire 1 7 C0~input_o $end
$var wire 1 8 A[0]~input_o $end
$var wire 1 9 B[0]~input_o $end
$var wire 1 : inst|inst13~0_combout $end
$var wire 1 ; A[1]~input_o $end
$var wire 1 < B[1]~input_o $end
$var wire 1 = inst4|inst~combout $end
$var wire 1 > inst|inst13~1_combout $end
$var wire 1 ? inst|inst6~0_combout $end
$var wire 1 @ inst|inst12~0_combout $end
$var wire 1 A B[3]~input_o $end
$var wire 1 B A[3]~input_o $end
$var wire 1 C inst|inst12~1_combout $end
$var wire 1 D inst|inst13~2_combout $end
$var wire 1 E inst6~combout $end
$var wire 1 F inst|inst4~combout $end
$var wire 1 G inst|inst14~0_combout $end
$var wire 1 H inst7~combout $end
$var wire 1 I inst8~combout $end
$var wire 1 J inst9~combout $end
$upscope $end
$upscope $end
$enddefinitions $end
#0
$dumpvars
b0 !
b0 "
0#
0$
0(
0'
0&
0%
x)
0*
1+
x,
1-
1.
1/
00
01
02
03
04
05
06
07
08
09
0:
0;
0<
0=
0>
0?
0@
0A
0B
0C
0D
0E
0F
0G
0H
0I
0J
$end
#60000
b1 !
b1 "
19
18
0)
1:
1I
13
1'
#120000
b11 !
b11 "
b10 !
b10 "
09
1<
08
1;
1)
1G
0:
0I
03
0'
1H
12
1&
#180000
b11 !
b11 "
19
18
0)
1:
1I
13
1'
#240000
b111 !
b111 "
b101 !
b101 "
b100 !
b100 "
09
0<
15
08
0;
16
1)
0G
0:
1D
1@
0I
03
0'
0H
1E
02
11
0&
1%
#300000
b101 !
b101 "
19
18
0)
1:
1I
13
1'
#360000
b111 !
b111 "
b110 !
b110 "
09
1<
08
1;
1)
1G
0:
0I
03
0'
1H
12
1&
#420000
b111 !
b111 "
19
18
0)
1:
1I
13
1'
#480000
b11 !
b11 "
b1 !
b1 "
b0 !
b0 "
09
0<
05
08
0;
06
1)
0G
0:
0D
0@
0I
03
0'
0H
0E
02
01
0&
0%
