LAB06/simulation/qsim/LAB06.msim.vcd
$comment
	File created using the following command:
		vcd file LAB06.msim.vcd -direction
$end
$date
	Wed Jun 04 16:51:36 2025
$end
$version
	ModelSim Version 10.1d
$end
$timescale
	1ps
$end
$scope module LAB06_vlg_vec_tst $end
$var reg 4 ! A [3:0] $end
$var reg 4 " B [3:0] $end
$var reg 2 # SEL [1:0] $end
$var wire 1 $ A_D $end
$var wire 1 % B_D $end
$var wire 1 & C_D $end
$var wire 1 ' D_D $end
$var wire 1 ( E_D $end
$var wire 1 ) F_D $end
$var wire 1 * G_D $end
$var wire 1 + sampler $end
$scope module i1 $end
$var wire 1 , gnd $end
$var wire 1 - vcc $end
$var wire 1 . unknown $end
$var tri1 1 / devclrn $end
$var tri1 1 0 devpor $end
$var tri1 1 1 devoe $end
$var wire 1 2 A_D~output_o $end
$var wire 1 3 B_D~output_o $end
$var wire 1 4 C_D~output_o $end
$var wire 1 5 D_D~output_o $end
$var wire 1 6 G_D~output_o $end
$var wire 1 7 E_D~output_o $end
$var wire 1 8 F_D~output_o $end
$var wire 1 9 SEL[1]~input_o $end
$var wire 1 : B[0]~input_o $end
$var wire 1 ; A[1]~input_o $end
$var wire 1 < B[1]~input_o $end
$var wire 1 = A[0]~input_o $end
$var wire 1 > inst|inst|inst1|inst3~0_combout $end
$var wire 1 ? SEL[0]~input_o $end
$var wire 1 @ B[2]~input_o $end
$var wire 1 A A[2]~input_o $end
$var wire 1 B inst|inst6|inst2|inst3~2_combout $end
$var wire 1 C inst|inst6|inst2|inst3~3_combout $end
$var wire 1 D inst|inst6|inst|inst3~0_combout $end
$var wire 1 E inst|inst6|inst1|inst3~0_combout $end
$var wire 1 F inst|inst6|inst1|inst3~1_combout $end
$var wire 1 G inst|inst6|inst1|inst3~2_combout $end
$var wire 1 H B[3]~input_o $end
$var wire 1 I A[3]~input_o $end
$var wire 1 J inst|inst6|inst3|inst3~3_combout $end
$var wire 1 K inst|inst6|inst3|inst3~2_combout $end
$var wire 1 L inst|inst6|inst3|inst3~4_combout $end
$var wire 1 M inst1|inst|inst13~0_combout $end
$var wire 1 N inst1|inst1|inst10~0_combout $end
$var wire 1 O inst1|inst2|inst16~0_combout $end
$var wire 1 P inst1|inst3|inst13~0_combout $end
$var wire 1 Q inst1|inst7|inst16~0_combout $end
$var wire 1 R inst1|inst4|inst14~0_combout $end
$var wire 1 S inst1|inst6|inst13~0_combout $end
$upscope $end
$upscope $end
$enddefinitions $end
#0
$dumpvars
b0 !
b111 "
b0 #
x$
x%
x&
x'
x(
x)
x*
x+
0,
1-
x.
1/
10
11
x2
x3
x4
x5
x6
x7
x8
09
1:
0;
1<
0=
x>
0?
1@
0A
xB
xC
xD
xE
xF
xG
0H
0I
xJ
xK
xL
xM
xN
xO
xP
xQ
xR
xS
$end
#3446
1B
#3447
1D
#3552
1E
#3584
0F
#3624
0J
#3806
0>
#3970
1G
#4140
0K
#4412
1C
#4460
0L
#4837
0N
#4844
0O
#4848
1Q
#4850
1R
#4853
1S
#5037
0M
1P
#8197
15
1'
#8244
18
1)
#8357
16
1*
#8398
03
0%
#8704
17
1(
#8779
02
0$
#8815
04
0&
#80000
b1000 !
b1010 !
b1111 "
b1101 "
b1100 "
0+
#80725
1;
#80735
1I
1H
#80886
0<
0:
#84223
0D
#84871
0Q
#84880
0S
#84881
0R
#84897
1N
#84911
0P
#88049
05
0'
#88240
08
0)
#88414
06
0*
#88549
13
1%
#88698
07
0(
#160000
b1110 !
b1111 !
b1000 "
1+
#160725
1A
1=
#160886
0@
#163790
0B
#163815
1D
#163944
1K
#164114
0C
#164249
1L
#164401
1Q
#164421
1S
#164422
1R
#164440
0N
#164456
0K
#164466
1B
#164588
0R
#164590
0S
#164594
1M
1N
#164774
1C
#164776
0L
#164816
0Q
#165153
0N
#165164
1Q
#165166
1R
#165169
1S
#165399
0M
1P
#168559
15
1'
#168560
18
1)
#168673
16
1*
#168714
03
0%
#169020
17
1(
#240000
b111 !
b101 !
b0 "
b10 "
b100 !
0+
#240725
1<
#240886
0;
0=
#240896
0I
0H
#243678
0E
#243679
1>
#243993
1K
#244129
0G
#244229
0D
#244238
0C
#244298
1L
#244438
1E
#244637
0R
#244640
0P
#244692
0>
#244856
1G
#244886
0S
#244940
0Q
#245026
0K
#245298
1C
#245318
1P
#245346
0L
#245887
1N
#245928
0P
#248246
08
0)
#248454
07
0(
#248483
06
0*
#249066
05
0'
#249539
13
1%
#320000
b0 !
b110 "
b100 "
1+
#320725
1@
#320886
0A
0<
#324053
1K
#324081
0E
#324343
0K
#324358
1L
#324532
0G
#324663
0L
#324710
1O
#325040
0N
#325047
0O
#325050
1M
#325053
1R
#325056
1P
#328216
15
1'
#328601
03
0%
#328873
12
1$
#328907
17
1(
#400000
b1000 !
b1010 !
b1011 !
b1111 !
b0 "
b10 "
0+
#400725
1A
1;
1=
1<
#400735
1I
#400886
0@
#403679
1E
#403782
1J
#403790
0B
#403815
1D
#403944
1K
#404024
0E
#404097
1G
#404114
0C
#404275
1>
#404448
0M
#404456
0K
#404466
1B
#404475
0G
#404559
1S
#404589
1K
#404986
1Q
#404989
1M
#407950
18
1)
#408495
16
1*
#480000
b1101 !
b1100 !
b1000 !
b110 "
b100 "
1+
#480725
1@
#480886
0A
0;
0=
0<
#484080
0>
#484082
1E
#484229
0D
#484414
0K
#484428
0E
#484500
1G
#484686
1C
#484744
1L
#484879
0G
#484887
0R
#484917
0P
#484918
0M
#484959
0Q
#485096
1O
#485275
1N
#485317
0S
#485390
1Q
#488055
05
0'
#488660
02
0$
#488677
08
0)
#488704
07
0(
#488927
13
1%
#489133
14
1&
#560000
b0 !
b10 !
b110 !
b110 "
0+
#560725
1A
1;
1<
#560896
0I
#563679
1E
#563790
0B
#563944
1K
#564024
0E
#564097
1G
#564114
0C
#564166
0J
#564239
0L
#564275
1>
#564475
0G
#564556
0Q
#564632
1S
#564764
1L
#564799
0N
#564840
1C
#564983
0O
#564986
0S
#565429
1N
#565433
1O
#565465
1Q
#640000
b100 !
b100 "
1+
#640886
0;
0<
#644080
0>
#644082
1E
#644428
0E
#644500
1G
#644680
0C
#644879
0G
#644959
0Q
#645346
0O
#645365
0N
#648502
06
0*
#648926
03
0%
#649317
04
0&
#720000
b101 "
b101 !
b1 "
b1101 !
b1001 !
0+
#720725
1:
1=
#720735
1I
#720886
0@
0A
#723782
1J
#724079
1G
#724343
0K
#724353
0L
#724541
1P
#724673
1L
#724736
0P
#724746
1S
#724747
1O
#725014
0S
#725015
0O
#725024
1P
#728184
15
1'
#800000
b11 "
b111 "
1+
#800725
1@
1<
#803679
1>
1E
#803993
1K
#804065
1B
#804096
0G
#804288
0L
#804607
0P
#804676
1Q
#807745
05
0'
#808185
16
1*
#880000
b1111 "
b1110 "
b1000 !
b1100 "
0+
#880735
1H
#880886
0<
0:
0=
#883936
0>
#884081
0E
#884115
0J
#884221
1G
#884270
0K
#884532
0G
#884542
1C
#884680
0Q
#884681
1O
#884683
1S
#885040
0O
#885044
1P
1R
#885046
1M
#885173
0S
#888204
15
1'
#888223
06
0*
#888869
12
1$
#888898
17
1(
#960000
b1000 "
b1001 "
b1011 "
1+
#960725
1<
1:
#960886
0@
#963679
1E
#963811
1D
#964097
1G
#964444
0M
#964480
0B
#964558
1Q
#964559
1S
#964804
0C
#965505
0P
#965506
0Q
#967950
18
1)
#968186
02
0$
#968643
05
0'
